<?xml version="1.0" encoding="UTF-8" standalone="no"?>
<svg
	xmlns:rdf="http://www.w3.org/1999/02/22-rdf-syntax-ns#"
	xmlns="http://www.w3.org/2000/svg"
	version="1.0"
	xmlns:cc="http://creativecommons.org/ns#"
	xmlns:dc="http://purl.org/dc/elements/1.1/"
	width="120"
	height="42">

<g id="cc-by-nc-nd">

<path fill="#aab2ab" nodetypes="ccccccc" d="m3.4093073 0.44588936 113.353183 0.20183417c1.58383 0 2.99879-0.23532084 2.99879 3.16004817l-0.13878 37.3290763h-119.074175v-37.4678422c0-1.673906 0.16207441-3.22311644 2.86098244-3.22311644z" />

<path d="m117.75335 0h-115.505704c-1.2393037 0-2.24763528 1.0082269-2.24763528 2.2469155v39.2460635c0 0.279957 0.22709696 0.50702 0.50755952 0.50702h118.98488c0.28048 0 0.50756-0.227073 0.50756-0.50702v-39.2460635c0-1.2386886-1.00833-2.2469155-2.24666-2.2469155zm-115.505704 1.0150136h115.505704c0.67934 0 1.23155 0.5526294 1.23155 1.2319019v27.2143245h-82.555931c-3.025959 5.470519-8.856613 9.185134-15.547109 9.185134-6.692443 0-12.5211493-3.711216-15.5451701-9.185134h-4.3215502v-27.2143245c-0.0000099-0.6792626 0.5531638-1.2319019 1.2325068-1.2319019z"/>

<path d="m34.52291 19.544926c0.005204 7.529197-6.096591 13.636274-13.626518 13.641618-7.529979 0.004337-13.6381677-6.095905-13.6430343-13.625103v-0.01648c-0.0052049-7.530152 6.0965383-13.6372287 13.6265173-13.6416177 7.530934-0.004337 13.639174 6.0959567 13.643035 13.6251547v0.01648z" rx="22.939548" ry="22.939548" cy="264.3577" cx="296.35416" type="arc" fill="#fff"/>

<path d="m31.972519 8.4403679c3.023013 3.0232271 4.535022 6.7252261 4.535022 11.1045561 0 4.379808-1.485803 8.042036-4.457408 10.988135-3.154054 3.101796-6.880736 4.652455-11.181892 4.652455-4.248743 0-7.911352-1.537527-10.9858318-4.614125-3.0764407-3.075644-4.6136504-6.750953-4.6136504-11.026465 0-4.274982 1.5372097-7.976495 4.6136504-11.1045561 2.9968578-3.0246586 6.6594228-4.5360338 10.9858318-4.5360338 4.379785 0 8.08026 1.5113752 11.104278 4.5360338zm-20.055033 2.0334341c-2.5562359 2.581697-3.8343712 5.605879-3.8343712 9.075034 0 3.468097 1.2655394 6.466604 3.7946142 8.995885 2.531027 2.52928 5.542397 3.794168 9.037113 3.794168s6.532294-1.277482 9.114736-3.832976c2.451453-2.373054 3.677174-5.357951 3.677174-8.957085 0-3.571968-1.246107-6.603939-3.737325-9.094412-2.490264-2.4900051-5.508453-3.7355063-9.054585-3.7355063-3.546131 0-6.546858 1.2518158-8.997356 3.7548923zm6.726393 7.549104c-0.390117-0.851513-0.974333-1.277057-1.75461-1.277057-1.378052 0-2.067104 0.927696-2.067104 2.783089 0 1.855818 0.689052 2.783037 2.067104 2.783037 0.910321 0 1.560562-0.451696 1.950679-1.357048l1.910862 1.017428c-0.911276 1.618109-2.27773 2.4279-4.099319 2.4279-1.405213 0-2.530974-0.430896-3.376278-1.292089-0.846249-0.861679-1.269408-2.04942-1.269408-3.563233 0-1.488086 0.436709-2.669001 1.308219-3.543803 0.871511-0.874803 1.958461-1.311467 3.259845-1.311467 1.926424 0 3.304485 0.758338 4.139084 2.274579l-2.069074 1.058664zm8.990581 0c-0.391123-0.851513-0.964695-1.277057-1.719719-1.277057-1.40622 0-2.109837 0.927696-2.109837 2.783089 0 1.855818 0.703617 2.783037 2.109837 2.783037 0.912282 0 1.55082-0.451696 1.914782-1.357048l1.953585 1.017428c-0.909367 1.618109-2.273869 2.4279-4.092543 2.4279-1.403313 0-2.52616-0.430896-3.371455-1.292089-0.843343-0.861679-1.266442-2.04942-1.266442-3.563233 0-1.488086 0.428928-2.669001 1.286828-3.543803 0.856945-0.874803 1.947764-1.311467 3.273455-1.311467 1.922512 0 3.29961 0.758338 4.130349 2.274579l-2.10884 1.058664z"/>

<g fill="#fff">

<path d="m48.093178 32.747425c0.315404 0 0.604612 0.02814 0.864702 0.08345s0.482328 0.146527 0.66866 0.273647c0.185358 0.126146 0.328988 0.295001 0.431864 0.504595 0.101901 0.210569 0.153339 0.469668 0.153339 0.779216 0 0.333814-0.07573 0.611336-0.228061 0.83356-0.151391 0.223188-0.375577 0.404652-0.67351 0.547293 0.409544 0.117412 0.715248 0.323142 0.917104 0.617158 0.201855 0.294017 0.302792 0.648211 0.302792 1.062571 0 0.333813-0.06499 0.622981-0.195067 0.867523-0.130046 0.243569-0.305705 0.443465-0.52503 0.597752-0.2203 0.155261-0.471655 0.269762-0.753091 0.343512-0.282411 0.07472-0.571619 0.111589-0.869552 0.111589h-3.216176v-6.621874h3.122026v0.00001zm-0.185368 2.678258c0.259116 0 0.473592-0.06211 0.640516-0.18534 0.166924-0.123235 0.250381-0.323141 0.250381-0.600663 0-0.154287-0.02812-0.281407-0.08348-0.379423-0.05625-0.09898-0.130045-0.175641-0.223211-0.231922-0.09312-0.05531-0.199917-0.09413-0.320263-0.115475-0.120346-0.02134-0.246505-0.03203-0.376551-0.03203h-1.364499v1.544849h1.477084zm0.08447 2.810216c0.142656 0 0.278524-0.01358 0.408569-0.04172s0.244558-0.07472 0.344522-0.138766c0.09898-0.06502 0.177597-0.153323 0.236796-0.264912 0.05923-0.110625 0.08835-0.253267 0.08835-0.425996 0-0.339636-0.0961-0.582231-0.288234-0.727784-0.192156-0.144588-0.445448-0.217365-0.761826-0.217365h-1.589649v1.816547h1.561505z"/>

<path d="m50.787237 32.747425h1.633315l1.550832 2.615179 1.541123-2.615179h1.623616l-2.458226 4.080455v2.541429h-1.459604v-2.578305l-2.431056-4.043579z"/>

<path d="m72.517281 32.747425 2.766843 4.442399h0.0155v-4.442399h1.366437v6.621874h-1.456692l-2.756169-4.433664h-0.01848v4.433664h-1.366438v-6.621874h1.448931z"/>

<path d="m82.194919 34.511586c-0.08636-0.13973-0.195067-0.262001-0.325113-0.366803-0.130045-0.104802-0.276586-0.187287-0.440599-0.245506-0.164012-0.05919-0.335786-0.08831-0.514357-0.08831-0.328024 0-0.606549 0.06308-0.835584 0.190199-0.229034 0.126146-0.414393 0.295964-0.556085 0.509454-0.142656 0.21348-0.246505 0.456075-0.311528 0.727784-0.06499 0.271709-0.09709 0.553116-0.09709 0.843257 0 0.278496 0.032 0.549231 0.09709 0.811242 0.06499 0.262975 0.168862 0.499747 0.311528 0.709351 0.141692 0.210569 0.327051 0.378449 0.556085 0.505569 0.229035 0.127121 0.50756 0.190199 0.835584 0.190199 0.444485 0 0.792882-0.135855 1.043263-0.408528 0.250381-0.271709 0.40372-0.630751 0.459034-1.076154h1.410114c-0.03687 0.41435-0.132957 0.788924-0.28726 1.122728-0.154303 0.334777-0.35908 0.619105-0.612373 0.854903s-0.550262 0.415324-0.890897 0.539533c-0.339672 0.124209-0.714275 0.186313-1.121881 0.186313-0.507559 0-0.963691-0.08831-1.369349-0.264912-0.404694-0.175641-0.747267-0.41921-1.025802-0.727784-0.279499-0.309548-0.493001-0.673439-0.64149-1.090711-0.14848-0.418236-0.223212-0.867523-0.223212-1.350775 0-0.494897 0.07473-0.953883 0.223212-1.377941 0.148479-0.424059 0.361991-0.793773 0.64149-1.109144 0.278525-0.315371 0.621108-0.562825 1.025802-0.742341 0.405658-0.179516 0.86179-0.268797 1.369349-0.268797 0.364904 0 0.709425 0.0524 1.034538 0.158172 0.324139 0.104802 0.615284 0.258125 0.871489 0.45996 0.257178 0.20087 0.468743 0.450251 0.635667 0.747189 0.166924 0.296939 0.271737 0.637539 0.315403 1.020837h-1.410114c-0.02425-0.166907-0.0806-0.32023-0.166914-0.458986z"/>

<path d="m98.355374 32.747425 2.766846 4.442399h0.0155v-4.442399h1.36644v6.621874h-1.45669l-2.756174-4.433664h-0.01848v4.433664h-1.366438v-6.621874h1.448931z"/>

<path d="m106.64037 32.747425c0.42798 0 0.82491 0.06793 1.19369 0.203782 0.36878 0.135854 0.6871 0.3406 0.95689 0.612309 0.26883 0.271709 0.47942 0.612309 0.63082 1.019873 0.15237 0.408527 0.22806 0.887893 0.22806 1.438108 0 0.482277-0.0621 0.926716-0.18536 1.335243-0.12422 0.407564-0.31153 0.760774-0.56191 1.056748-0.25135 0.296938-0.56384 0.530798-0.93846 0.700617-0.37461 0.169818-0.8152 0.255214-1.32373 0.255214h-2.86001v-6.621874h2.86001v-0.00002zm-0.1019 5.395318c0.21059 0 0.41439-0.03396 0.61237-0.101891 0.19798-0.06793 0.3746-0.18049 0.52892-0.338662 0.1543-0.157199 0.27852-0.361955 0.37169-0.615221 0.0922-0.253267 0.13878-0.562824 0.13878-0.926716 0-0.333814-0.032-0.634627-0.0971-0.903425-0.065-0.268797-0.17178-0.498772-0.32027-0.689944s-0.34452-0.338663-0.58908-0.440554c-0.24455-0.10189-0.54637-0.152349-0.90449-0.152349h-1.03939v4.168752h1.29852v0.00001z"/>

<path d="m87.801399 14.981221c0.0046 5.500587-4.451603 9.961917-9.953251 9.966304-5.500714 0.0034-9.962985-4.45211-9.966848-9.951763v-0.01459c-0.0034-5.5010771 4.452572-9.9624061 9.953251-9.966782 5.50068-0.00342 9.96295 4.45211 9.966848 9.951728v0.01504z" rx="29.209877" ry="29.209877" cy="252.08646" cx="475.97119" type="arc"/>

</g>

<path d="m77.82581 3.3861533c3.252067 0 5.999495 1.1207822 8.244255 3.3618567 2.244715 2.2420886 3.367562 4.986804 3.367562 8.2332 0 3.245918-1.103439 5.961517-3.309347 8.145841-2.341793 2.299819-5.10961 3.448737-8.30247 3.448737-3.153109 0-5.872375-1.140189-8.155941-3.420601-2.283532-2.279398-3.42482-5.004706-3.42482-8.173977 0-3.169761 1.141276-5.9144645 3.42482-8.2332 2.225317-2.2410745 4.944618-3.3618567 8.155941-3.3618567zm-8.972089 8.4796647c-0.345506 0.97861-0.519204 2.016911-0.519204 3.115403 0 2.570032 0.939415 4.791746 2.816332 6.666998 1.876883 1.873805 4.111933 2.811174 6.705049 2.811174 2.592134 0 4.846559-0.946588 6.762294-2.840769 0.641492-0.61958 1.170429-1.295465 1.584794-2.028101l-4.37202-1.946099c-0.295975 1.470605-1.607097 2.46379-3.190923 2.580254v1.787904h-1.331523v-1.787904c-1.301412-0.01459-2.558161-0.546831-3.519903-1.388147l1.597388-1.610338c0.768646 0.723907 1.538226 1.048477 2.588283 1.048477 0.680298 0 1.434379-0.265871 1.434379-1.152325 0-0.313892-0.121319-0.532255-0.312501-0.696717l-1.106322-0.491015-1.376153-0.613768c-0.681278-0.303739-1.258731-0.559422-1.83713-0.817533l-5.92284-2.637494zm9.002177-6.392887c-2.632902 0-4.857273 0.9272162-6.67691 2.783073-0.494963 0.4997436-0.925854 1.0213212-1.290734 1.5662029l4.432195 1.9737561c0.400803-1.229987 1.569249-1.9761834 2.988083-2.0586763v-1.7879389h1.331523v1.7879389c0.917089 0.044215 1.922515 0.2954653 2.913365 1.0630523l-1.52365 1.566203c-0.561908-0.398859-1.271325-0.679293-1.981711-0.679293-0.576485 0-1.390729 0.176632-1.390729 0.901029 0 0.110081 0.03784 0.207161 0.10485 0.294485l1.482896 0.658884 1.003477 0.447369c0.641492 0.286737 1.254834 0.558443 1.861372 0.82869l5.942282 2.645254c0.196025-0.777751 0.295007-1.605495 0.295007-2.481739 0-2.647693-0.928737-4.889736-2.786246-6.725217-1.839034-1.8558568-4.073115-2.783073-6.705048-2.783073z"/>

<path d="m114.66821 14.981238c0.005 5.8446-4.7311 10.586844-10.5763 10.591694-5.846198 0.0031-10.588929-4.731096-10.592835-10.577137v-0.01453c-0.0037-5.8450904 4.731097-10.5873344 10.577295-10.5917314 5.8452-0.00497 10.58794 4.7306058 10.59184 10.5756964v0.01602z" rx="29.209877" ry="29.209877" cy="252.08646" cx="475.97119" type="arc" fill="#fff"/>

<path d="m103.91816 3.3861579c-3.21231 0-5.931564 1.1197946-8.156902 3.3618865-2.283529 2.3186971-3.424824 5.0624636-3.424824 8.2331946 0 3.169253 1.141289 5.893612 3.424824 8.173985 2.282585 2.280379 5.002832 3.4206 8.156902 3.4206 3.1929 0 5.95973-1.150387 8.30149-3.448727 2.20495-2.184323 3.30935-4.899963 3.30935-8.145864 0-3.24787-1.12283-5.9911401-3.36758-8.2331948-2.24471-2.2420857-4.99312-3.3618803-8.24326-3.3618803zm0.0281 2.0858076c2.63191 0 4.86696 0.9281856 6.70601 2.7840226 1.85751 1.8354859 2.7853 4.0765899 2.7853 6.7252509 0 2.666591-0.90838 4.87904-2.72707 6.637387-1.91669 1.894198-4.17114 2.839816-6.76424 2.839816-2.59314 0-4.828148-0.936408-6.705065-2.811689-1.876918-1.873804-2.815361-4.096451-2.815361-6.665514 0-2.571528 0.948145-4.812632 2.845422-6.7252509 1.818695-1.855837 4.043044-2.7840226 6.675004-2.7840226z"/>

<path d="m108.31346 12.232616h-8.4286v1.996577h8.4286v-1.996577zm0 3.726765h-8.4286v1.996049h8.4286v-1.996049z"/>

<ellipse rx="10.738858" ry="10.737743" cy="15.217016" cx="51.764053" fill="#fff"/>

<path d="m54.872021 12.109861c0-0.413863-0.335786-0.74865-0.749216-0.74865h-4.742741c-0.413429 0-0.749215 0.334777-0.749215 0.74865v4.742736h1.322761v5.616558h3.594665v-5.616558h1.323736v-4.742736h0.00001z"/>

<ellipse cy="9.114296" cx="51.751434" rx="1.6221553" ry="1.6219869"/>

<path fill-rule="evenodd" clip-rule="evenodd" d="m51.736389 3.3861378c-3.211327 0-5.930607 1.1203029-8.155923 3.3623693-2.283541 2.3182411-3.424829 5.0629549-3.424829 8.2317379 0 3.168782 1.141288 5.894577 3.424829 8.174969 2.283541 2.279906 5.002831 3.420102 8.155923 3.420102 3.192883 0 5.960699-1.149418 8.302465-3.449703 2.205907-2.182874 3.308369-4.898483 3.308369-8.145378s-1.12188-5.9901583-3.366604-8.2317378c-2.244714-2.2420466-4.992138-3.3623594-8.24423-3.3623594zm0.03011 2.0863187c2.631948 0 4.865989 0.92768 6.704081 2.7830499 1.858475 1.8354766 2.787225 4.0775426 2.787225 6.7247386 0 2.666602-0.909342 4.88004-2.72899 6.638369-1.915725 1.893695-4.170159 2.840305-6.762316 2.840305-2.594094 0-4.829119-0.936901-6.706028-2.811191-1.876909-1.874776-2.815368-4.096949-2.815368-6.667483 0-2.570057 0.948158-4.811636 2.844476-6.7247386 1.819657-1.85536 4.044973-2.7830499 6.67692-2.7830499z"/>

</g>

</svg>
